Test No.;Water;Urine4;Urine7;Urine4;Water;Calibration4;Calibration7;Calibration4;Water;Return
1;2016.10.06 09:49:00;2016.10.06 10:07:00;2016.10.06 10:21:00;2016.10.06 10:35:00;2016.10.06 10:46:00;2016.10.06 10:58:41;2016.10.06 11:09:42;2016.10.06 11:19:55;2016.10.06 11:31:15;2016.10.06 11:41:59
2;2016.10.07 13:12:23;2016.10.07 13:22:36;2016.10.07 13:34:02;2016.10.07 13:41:20;2016.10.07 13:47:27;2016.10.07 13:59:06;2016.10.07 14:09:47;2016.10.07 14:14:10;2016.10.07 14:23:10;2016.10.07 14:33:20
3;2016.10.10 08:59:20;2016.10.10 09:04:54;2016.10.10 09:11:30;2016.10.10 09:17:40;2016.10.10 09:25:02;2016.10.10 09:33:02;2016.10.10 09:39:46;2016.10.10 09:45:57;2016.10.10 09:51:33;2016.10.10 09:58:32
4;2016.10.12 09:11:28;2016.10.12 09:17:13;2016.10.12 09:24:55;2016.10.12 09:31:23;2016.10.12 09:38:35;2016.10.12 09:45:49;2016.10.12 09:51:37;2016.10.12 09:57:48;2016.10.12 10:03:39;2016.10.12 10:10:11
5;2016.10.14 08:04:55;2016.10.14 08:09:50;2016.10.14 08:18:22;2016.10.14 08:23:57;2016.10.14 08:29:11;2016.10.14 08:33:54;2016.10.14 08:39:51;2016.10.14 08:46:36;2016.10.14 08:49:50;2016.10.14 08:55:03
6;2016.10.19 09:06:54;2016.10.19 09:11:04;2016.10.19 09:17:30;2016.10.19 09:24:20;2016.10.19 09:31:08;2016.10.19 09:37:38;2016.10.19 09:45:21;2016.10.19 09:51:34;2016.10.19 09:57:56;2016.10.19 10:04:08
7;2016.10.26 09:37:32;2016.10.26 09:42:46;2016.10.26 09:48:50;2016.10.26 09:54:58;2016.10.26 10:01:02;2016.10.26 10:07:15;2016.10.26 10:15:15;2016.10.26 10:21:43;2016.10.26 10:32:18;2016.10.26 10:40:41
8;2016.11.11 14:19:22;2016.11.11 14:23:20;2016.11.11 14:32:37;2016.11.11 14:36:27;2016.11.11 14:43:28;2016.11.11 14:49:49;2016.11.11 14:55:46;2016.11.11 15:00:32;2016.11.11 15:05:31;2016.11.11 15:14:02
9;2016.11.17 10:46:30;2016.11.17 10:49:59;2016.11.17 10:55:32;2016.11.17 11:00:38;2016.11.17 11:06:47;2016.11.17 11:12:52;2016.11.17 11:18:35;2016.11.17 11:24:29;2016.11.17 11:28:29;2016.11.17 11:35:15
10;2016.12.01 13:48:34;2016.12.01 13:57:24;2016.12.01 14:04:11;2016.12.01 14:14:33;2016.12.01 14:23:30;2016.12.01 14:30:37;2016.12.01 14:38:07;2016.12.01 14:45:16;2016.12.01 14:50:28;2016.12.01 15:00:17
11;2016.12.13 08:23:04;2016.12.13 08:27:43;2016.12.13 08:36:33;2016.12.13 08:47:58;2016.12.13 08:54:39;2016.12.13 09:00:36;2016.12.13 09:10:53;2016.12.13 09:19:14;2016.12.13 09:19:14;2016.12.13 09:48:15
12;2016.12.13 09:19:14;2016.12.13 09:48:15;2016.12.13 09:56:10;2016.12.13 10:01:40;2016.12.13 10:10:38;2016.12.13 10:25:52;2016.12.13 10:36:17;2016.12.13 10:46:06;2016.12.13 10:52:42;2016.12.13 11:01:00
13;2016.12.22 10:42:16;2016.12.22 10:48:06;2016.12.22 10:54:47;2016.12.22 11:03:12;2016.12.22 11:11:09;2016.12.22 11:19:09;2016.12.22 11:25:05;2016.12.22 11:30:43;2016.12.22 11:36:00;2016.12.22 11:42:02
14;2017.02.08 09:03:07;2017.02.08 09:07:33;2017.02.08 09:13:46;2017.02.08 09:19:55;2017.02.08 09:26:20;2017.02.08 09:32:57;2017.02.08 09:39:13;2017.02.08 09:44:50;2017.02.08 09:52:52;2017.02.08 09:57:36
15;2017.03.29 08:19:04;2017.03.29 08:25:07;2017.03.29 08:33:24;2017.03.29 08:37:19;2017.03.29 08:43:53;2017.03.29 08:52:51;2017.03.29 09:00:44;2017.03.29 09:08:10;2017.03.29 09:14:53;2017.03.29 09:22:00
16;2017.04.04 09:58:22;2017.04.04 10:03:21;2017.04.04 10:10:58;2017.04.04 10:18:06;2017.04.04 10:25:39;2017.04.04 10:31:36;2017.04.04 10:38:15;2017.04.04 10:45:18;2017.04.04 10:51:03;2017.04.04 10:57:16
17;2017.04.07 07:40:11;2017.04.07 07:51:50;2017.04.07 08:00:49;2017.04.07 08:10:19;2017.04.07 08:24:54;2017.04.07 08:31:30;2017.04.07 08:38:09;2017.04.07 08:48:35;2017.04.07 08:55:24;2017.04.07 09:03:12
18;2017.04.18 12:13:09;2017.04.18 12:19:50;2017.04.18 12:28:40;2017.04.18 12:34:46;2017.04.18 12:53:12;2017.04.18 13:01:14;2017.04.18 13:09:23;2017.04.18 13:17:07;2017.04.18 13:26:05;2017.04.18 13:33:26
19;2017.05.03 13:28:34;2017.05.03 13:35:29;2017.05.03 13:41:27;2017.05.03 13:50:26;2017.05.03 13:56:25;2017.05.03 14:02:30;2017.05.03 14:09:01;2017.05.03 14:15:47;2017.05.03 14:21:43;2017.05.03 14:28:30
20;2017.05.17 08:36:49;2017.05.17 08:41:48;2017.05.17 08:48:51;2017.05.17 08:54:27;2017.05.17 09:02:00;2017.05.17 09:07:58;2017.05.17 09:16:32;2017.05.17 09:26:42;2017.05.17 09:34:59;2017.05.17 09:45:39
21;2017.05.31 08:08:02;2017.05.31 08:16:00;2017.05.31 08:22:28;2017.05.31 08:28:25;2017.05.31 08:35:47;2017.05.31 08:42:23;2017.05.31 08:48:30;2017.05.31 08:54:14;2017.05.31 09:00:42;2017.05.31 09:07:26
22;2017.06.14 08:18:08;2017.06.14 08:27:13;2017.06.14 08:35:48;2017.06.14 08:41:28;2017.06.14 08:47:50;2017.06.14 08:54:25;2017.06.14 09:00:24;2017.06.14 09:07:17;2017.06.14 09:13:32;2017.06.14 09:21:04
23;2017.06.28 08:14:59;2017.06.28 08:21:41;2017.06.28 08:29:22;2017.06.28 08:35:59;2017.06.28 08:42:14;2017.06.28 08:49:30;2017.06.28 08:55:28;2017.06.28 09:01:12;2017.06.28 09:07:51;2017.06.28 09:14:37
24;2017.07.12 08:13:34;2017.07.12 08:19:15;2017.07.12 08:28:22;2017.07.12 08:35:36;2017.07.12 08:44:21;2017.07.12 08:50:25;2017.07.12 08:57:16;2017.07.12 09:02:55;2017.07.12 09:09:14;2017.07.12 09:15:30
25;2017.07.26 08:09:55;2017.07.26 08:15:03;2017.07.26 08:23:00;2017.07.26 08:31:00;2017.07.26 08:37:02;2017.07.26 08:42:44;2017.07.26 08:48:28;2017.07.26 08:54:24;2017.07.26 08:59:31;2017.07.26 09:08:25
26;2017.08.09 08:11:41;2017.08.09 08:16:58;2017.08.09 08:24:15;2017.08.09 08:30:07;2017.08.09 08:36:03;2017.08.09 08:42:12;2017.08.09 08:49:37;2017.08.09 08:55:33;2017.08.09 09:02:42;2017.08.09 09:09:23
27;2017.08.23 08:16:17;2017.08.23 08:21:35;2017.08.23 08:27:29;2017.08.23 08:32:58;2017.08.23 08:39:16;2017.08.23 08:46:30;2017.08.23 08:52:14;2017.08.23 08:58:05;2017.08.23 09:04:29;2017.08.23 09:10:19
28;2017.09.06 12:23:08;2017.09.06 12:28:22;2017.09.06 12:34:34;2017.09.06 12:41:26;2017.09.06 12:47:18;2017.09.06 12:53:03;2017.09.06 12:59:11;2017.09.06 13:05:39;2017.09.06 13:11:09;2017.09.06 13:18:47
29;2017.09.20 09:53:50;2017.09.20 09:58:58;2017.09.20 10:04:29;2017.09.20 10:10:15;2017.09.20 10:15:58;2017.09.20 10:21:40;2017.09.20 10:27:09;2017.09.20 10:32:57;2017.09.20 10:38:50;2017.09.20 10:38:50
30;2017.09.20 10:38:50;2017.09.20 11:14:38;2017.09.20 11:20:44;2017.09.20 11:26:09;2017.09.20 11:31:40;2017.09.20 10:50:38;2017.09.20 10:56:04;2017.09.20 11:02:05;2017.09.20 11:08:10;2017.09.20 11:36:59
31;2017.10.04 12:17:18;2017.10.04 12:22:34;2017.10.04 12:31:55;2017.10.04 12:44:14;2017.10.04 12:52:54;2017.10.04 13:00:04;2017.10.04 13:06:06;2017.10.04 13:11:44;2017.10.04 13:18:33;2017.10.04 13:24:49
32;2017.10.19 08:06:42;2017.10.19 08:12:07;2017.10.19 08:19:07;2017.10.19 08:25:20;2017.10.19 08:31:20;2017.10.19 08:37:06;2017.10.19 08:44:56;2017.10.19 08:52:38;2017.10.19 09:00:17;2017.10.19 09:06:23
33;2017.11.01 13:13:48;2017.11.01 13:19:04;2017.11.01 13:26:38;2017.11.01 13:34:13;2017.11.01 13:39:58;2017.11.01 13:46:35;2017.11.01 13:52:39;2017.11.01 13:59:56;2017.11.01 14:05:49;2017.11.01 14:14:09
34;2017.11.14 09:13:14;2017.11.14 09:22:23;2017.11.14 09:29:34;2017.11.14 09:35:06;2017.11.14 09:44:34;2017.11.14 09:53:22;2017.11.14 10:07:00;2017.11.14 10:16:00;2017.11.14 10:22:58;2017.11.14 10:37:59
35;2017.12.14 10:37:08;2017.12.14 10:42:49;2017.12.14 10:50:23;2017.12.14 10:57:02;2017.12.14 11:03:40;2017.12.14 11:10:08;2017.12.14 11:16:32;2017.12.14 11:22:14;2017.12.14 11:28:04;2017.12.14 11:34:34
36;2018.01.11 09:03:58;2018.01.11 09:09:01;2018.01.11 09:16:08;2018.01.11 09:21:41;2018.01.11 09:28:37;2018.01.11 09:35:09;2018.01.11 09:43:08;2018.01.11 09:49:16;2018.01.11 09:55:03;2018.01.11 10:01:54
37;2018.02.08 15:02:33;2018.02.08 15:07:41;2018.02.08 15:17:04;2018.02.08 15:23:52;2018.02.08 15:30:21;2018.02.08 15:36:28;2018.02.08 15:43:24;2018.02.08 15:49:31;2018.02.08 15:55:45;2018.02.08 16:04:11
38;2018.03.06 09:23:18;2018.03.06 09:31:43;2018.03.06 09:38:59;2018.03.06 09:46:17;2018.03.06 09:52:17;2018.03.06 09:58:43;2018.03.06 10:05:12;2018.03.06 10:10:59;2018.03.06 10:18:06;2018.03.06 10:25:32
39;2018.03.29 13:01:45;2018.03.29 13:09:07;2018.03.29 13:17:11;2018.03.29 13:25:00;2018.03.29 13:31:52;2018.03.29 13:37:18;2018.03.29 13:42:49;2018.03.29 13:49:28;2018.03.29 13:57:07;2018.03.29 14:03:41
40;2018.05.13 16:37:30;2018.05.13 16:42:55;2018.05.13 16:49:22;2018.05.13 16:55:01;2018.05.13 17:00:37;2018.05.13 17:06:13;2018.05.13 17:12:10;2018.05.13 17:18:13;2018.05.13 17:24:04;2018.05.13 17:30:00
41;2018.06.01 13:01:48;2018.06.01 13:07:19;2018.06.01 13:13:23;2018.06.01 13:18:57;2018.06.01 13:25:35;2018.06.01 13:32:27;2018.06.01 13:38:21;2018.06.01 13:43:48;2018.06.01 13:50:09;2018.06.01 13:57:34
42;2018.06.19 08:08:15;2018.06.19 08:13:40;2018.06.19 08:20:08;2018.06.19 08:25:34;2018.06.19 08:32:58;2018.06.19 08:39:31;2018.06.19 08:45:23;2018.06.19 08:51:16;2018.06.19 08:57:35;2018.06.19 09:03:24
43;2018.07.18 14:48:48;2018.07.18 14:54:05;2018.07.18 14:59:34;2018.07.18 15:04:59;2018.07.18 15:11:08;2018.07.18 15:17:16;2018.07.18 15:23:20;2018.07.18 15:28:54;2018.07.18 15:34:23;2018.07.18 15:40:41
44;2018.08.24 08:03:27;2018.08.24 08:09:46;2018.08.24 08:17:08;2018.08.24 08:22:50;2018.08.24 08:28:20;2018.08.24 08:37:15;2018.08.24 08:43:24;2018.08.24 08:49:21;2018.08.24 08:55:16;2018.08.24 09:02:39
45;2018.09.12 09:38:47;2018.09.12 09:45:52;2018.09.12 09:52:50;2018.09.12 09:58:39;2018.09.12 10:04:38;2018.09.12 10:13:38;2018.09.12 10:23:20;2018.09.12 10:31:44;2018.09.12 10:44:07;2018.09.12 10:50:35
46;2018.09.26 07:53:03;2018.09.26 07:58:16;2018.09.26 08:05:05;2018.09.26 08:11:19;2018.09.26 08:17:16;2018.09.26 08:23:37;2018.09.26 08:30:24;2018.09.26 08:35:58;2018.09.26 08:41:54;2018.09.26 08:48:02
47;2018.10.04 10:06:27;2018.10.04 10:13:04;2018.10.04 10:20:41;2018.10.04 10:26:54;2018.10.04 10:33:04;2018.10.04 10:39:52;2018.10.04 10:46:18;2018.10.04 10:52:19;2018.10.04 10:58:36;2018.10.04 11:04:25
