Timestamp [yyyy.mm.dd HH:MM:SS];Temperature [Celcius];
2016.10.04 12:00:00; 21.048440;
2016.10.05 12:00:00; 20.918750;
2016.10.06 12:00:00; 20.798440;
2016.10.07 12:00:00; 20.468750;
2016.10.08 12:00:00; 20.579690;
2016.10.09 12:00:00; 20.200000;
2016.10.10 12:00:00; 19.468750;
2016.10.11 12:00:00; 20.068750;
2016.10.12 12:00:00; 20.068750;
2016.10.13 12:00:00; 19.968750;
2016.10.14 12:00:00; 19.818750;
2016.10.15 12:00:00; 19.700000;
2016.10.16 12:00:00; 19.709380;
2016.10.17 12:00:00; 20.068750;
2016.10.18 12:00:00; 19.709380;
2016.10.19 12:00:00; 19.459380;
2016.10.20 12:00:00; 19.579690;
2016.10.21 12:00:00; 19.100000;
2016.10.22 12:00:00; 19.100000;
2016.10.23 12:00:00; 18.968750;
2016.10.24 12:00:00; 18.368750;
2016.10.25 12:00:00; 17.218750;
2016.10.26 12:00:00; 16.989060;
2016.10.27 12:00:00; 17.859380;
2016.10.28 12:00:00; 18.568750;
2016.10.29 12:00:00; 18.609380;
2016.10.30 12:00:00; 18.600000;
2016.10.31 12:00:00; 18.118750;
2016.11.01 12:00:00; 18.159380;
2016.11.02 12:00:00; 18.600000;
2016.11.03 12:00:00; 18.600000;
2016.11.04 12:00:00; 18.589060;
2016.11.05 12:00:00; 17.989060;
2016.11.06 12:00:00; 15.239060;
2016.11.07 12:00:00; 15.618750;
2016.11.08 12:00:00; 16.868750;
2016.11.09 12:00:00; 17.250000;
2016.11.10 12:00:00; 15.109380;
2016.11.11 12:00:00; 14.229690;
2016.11.12 12:00:00; 15.618750;
2016.11.13 12:00:00; 16.500000;
2016.11.14 12:00:00; 16.879690;
2016.11.15 12:00:00; 17.118750;
2016.11.16 12:00:00; 16.868750;
2016.11.17 12:00:00; 16.618750;
2016.11.18 12:00:00; 16.639060;
2016.11.19 12:00:00; 15.118750;
2016.11.20 12:00:00; 16.129690;
2016.11.21 12:00:00; 16.879690;
2016.11.22 12:00:00; 17.139060;
2016.11.23 12:00:00; 17.250000;
2016.11.24 12:00:00; 17.239060;
2016.11.25 12:00:00; 17.139060;
2016.11.26 12:00:00; 17.250000;
2016.11.27 12:00:00; 17.239060;
2016.11.28 12:00:00; 17.479690;
2016.11.29 12:00:00; 17.368750;
2016.11.30 12:00:00; 17.259380;
2016.12.01 12:00:00; 17.359380;
2016.12.02 12:00:00; 18.768750;
2016.12.03 12:00:00; 20.068750;
2016.12.04 12:00:00; 17.229690;
2016.12.05 12:00:00; 17.118750;
2016.12.06 12:00:00; 18.239060;
2016.12.07 12:00:00; 17.368750;
2016.12.08 12:00:00; 17.239060;
2016.12.09 12:00:00; 17.139060;
2016.12.10 12:00:00; 17.129690;
2016.12.11 12:00:00; 17.000000;
2016.12.12 12:00:00; 17.129690;
2016.12.13 12:00:00; 16.739060;
2016.12.14 12:00:00; 16.659380;
2016.12.15 12:00:00; 16.750000;
2016.12.16 12:00:00; 16.750000;
2016.12.17 12:00:00; 16.368750;
2016.12.18 12:00:00; 16.368750;
2016.12.19 12:00:00; 16.479690;
2016.12.20 12:00:00; 16.500000;
2016.12.21 12:00:00; 16.500000;
2016.12.22 12:00:00; 16.500000;
2016.12.23 12:00:00; 16.459380;
2016.12.24 12:00:00; 16.368750;
2016.12.25 12:00:00; 16.250000;
2016.12.26 12:00:00; 16.114065;
2016.12.27 12:00:00; 16.368750;
2016.12.28 12:00:00; 16.259380;
2016.12.29 12:00:00; 16.000000;
2016.12.30 12:00:00; 16.000000;
2016.12.31 12:00:00; 16.000000;
2017.01.01 12:00:00; 15.689060;
2017.01.02 12:00:00; 15.518750;
2017.01.03 12:00:00; 15.859380;
2017.01.04 12:00:00; 15.868750;
2017.01.05 12:00:00; 15.868750;
2017.01.06 12:00:00; 15.868750;
2017.01.07 12:00:00; 15.509380;
2017.01.08 12:00:00; 15.500000;
2017.01.09 12:00:00; 15.868750;
2017.01.10 12:00:00; 15.739060;
2017.01.11 12:00:00; 15.839060;
2017.01.12 12:00:00; 13.839060;
2017.01.13 12:00:00; 13.968750;
2017.01.14 12:00:00; 14.368750;
2017.01.15 12:00:00; 14.739060;
2017.01.16 12:00:00; 15.118750;
2017.01.17 12:00:00; 15.218750;
2017.01.18 12:00:00; 14.859380;
2017.01.19 12:00:00; 14.739060;
2017.01.20 12:00:00; 14.859380;
2017.01.21 12:00:00; 14.859380;
2017.01.22 12:00:00; 14.739060;
2017.01.23 12:00:00; 14.868750;
2017.01.24 12:00:00; 15.118750;
2017.01.25 12:00:00; 14.989060;
2017.01.26 12:00:00; 14.989060;
2017.01.27 12:00:00; 14.989060;
2017.01.28 12:00:00; 14.729690;
2017.01.29 12:00:00; 14.648440;
2017.01.30 12:00:00; 14.868750;
2017.01.31 12:00:00; 12.709380;
2017.02.01 12:00:00; 10.579690;
2017.02.02 12:00:00; 12.029690;
2017.02.03 12:00:00; 13.068750;
2017.02.04 12:00:00; 13.589060;
2017.02.05 12:00:00; 13.968750;
2017.02.06 12:00:00; 12.679690;
2017.02.07 12:00:00; 13.409380;
2017.02.08 12:00:00; 13.059380;
2017.02.09 12:00:00; 13.589060;
2017.02.10 12:00:00; 13.968750;
2017.02.11 12:00:00; 14.100000;
2017.02.12 12:00:00; 13.989060;
2017.02.13 12:00:00; 14.129690;
2017.02.14 12:00:00; 14.229690;
2017.02.15 12:00:00; 14.479690;
2017.02.16 12:00:00; 14.489060;
2017.02.17 12:00:00; 13.718750;
2017.02.18 12:00:00; 13.709380;
2017.02.19 12:00:00; 14.089060;
2017.02.20 12:00:00; 14.359380;
2017.02.21 12:00:00; 14.350000;
2017.02.22 12:00:00; 14.729690;
2017.02.23 12:00:00; 14.968750;
2017.02.24 12:00:00; 14.979690;
2017.02.25 12:00:00; 14.989060;
2017.02.26 12:00:00; 14.850000;
2017.02.27 12:00:00; 15.179690;
2017.02.28 12:00:00; 13.484375;
2017.03.01 12:00:00; 13.479690;
2017.03.02 12:00:00; 13.609380;
2017.03.03 12:00:00; 14.229690;
2017.03.04 12:00:00; 14.479690;
2017.03.05 12:00:00; 14.350000;
2017.03.06 12:00:00; 13.459380;
2017.03.07 12:00:00; 13.068750;
2017.03.08 12:00:00; 13.718750;
2017.03.09 12:00:00; 14.229690;
2017.03.10 12:00:00; 14.100000;
2017.03.11 12:00:00; 14.359380;
2017.03.12 12:00:00; 14.479690;
2017.03.13 12:00:00; 14.979690;
2017.03.14 12:00:00; 15.148440;
2017.03.15 12:00:00; 15.118750;
2017.03.16 12:00:00; 15.279690;
2017.03.17 12:00:00; 15.618750;
2017.03.18 12:00:00; 15.368750;
2017.03.19 12:00:00; 15.359380;
2017.03.20 12:00:00; 15.750000;
2017.03.21 12:00:00; 15.898440;
2017.03.22 12:00:00; 16.118750;
2017.03.23 12:00:00; 16.118750;
2017.03.24 12:00:00; 16.398440;
2017.03.25 12:00:00; 16.600000;
2017.03.26 12:00:00; 16.368750;
2017.03.27 12:00:00; 16.500000;
2017.03.28 12:00:00; 16.750000;
2017.03.29 12:00:00; 16.989060;
2017.03.30 12:00:00; 17.018750;
2017.03.31 12:00:00; 17.250000;
2017.04.01 12:00:00; 17.259380;
2017.04.02 12:00:00; 17.239060;
2017.04.03 12:00:00; 17.368750;
2017.04.04 12:00:00; 17.500000;
2017.04.05 12:00:00; 17.379690;
2017.04.06 12:00:00; 17.489060;
2017.04.07 12:00:00; 17.609380;
2017.04.08 12:00:00; 17.618750;
2017.04.09 12:00:00; 17.768750;
2017.04.10 12:00:00; 17.979690;
2017.04.11 12:00:00; 17.859380;
2017.04.12 12:00:00; 17.859380;
2017.04.13 12:00:00; 17.979690;
2017.04.14 12:00:00; 18.018750;
2017.04.15 12:00:00; 17.859380;
2017.04.16 12:00:00; 17.500000;
2017.04.17 12:00:00; 17.250000;
2017.04.18 12:00:00; 16.959380;
2017.04.19 12:00:00; 16.739060;
2017.04.20 12:00:00; 16.589060;
2017.04.21 12:00:00; 17.250000;
2017.04.22 12:00:00; 17.500000;
2017.04.23 12:00:00; 17.609380;
2017.04.24 12:00:00; 17.679690;
2017.04.25 12:00:00; 17.648440;
2017.04.26 12:00:00; 13.589060;
2017.04.27 12:00:00; 14.500000;
2017.04.28 12:00:00; 12.939060;
2017.04.29 12:00:00; 14.350000;
2017.04.30 12:00:00; 15.618750;
2017.05.01 12:00:00; 16.229690;
2017.05.02 12:00:00; 16.250000;
2017.05.03 12:00:00; 16.618750;
2017.05.04 12:00:00; 16.989060;
2017.05.05 12:00:00; 17.250000;
2017.05.06 12:00:00; 17.250000;
2017.05.07 12:00:00; 16.379690;
2017.05.08 12:00:00; 15.759380;
2017.05.09 12:00:00; 16.239060;
2017.05.10 12:00:00; 16.839060;
2017.05.11 12:00:00; 17.329690;
2017.05.12 12:00:00; 17.618750;
2017.05.13 12:00:00; 17.618750;
2017.05.14 12:00:00; 17.850000;
2017.05.15 12:00:00; 18.109380;
2017.05.16 12:00:00; 18.359380;
2017.05.17 12:00:00; 18.600000;
2017.05.18 12:00:00; 18.968750;
2017.05.19 12:00:00; 18.968750;
2017.05.20 12:00:00; 18.718750;
2017.05.21 12:00:00; 18.729690;
2017.05.22 12:00:00; 18.968750;
2017.05.23 12:00:00; 19.350000;
2017.05.24 12:00:00; 19.579690;
2017.05.25 12:00:00; 19.579690;
2017.05.26 12:00:00; 19.579690;
2017.05.27 12:00:00; 19.589060;
2017.05.28 12:00:00; 19.268750;
2017.05.29 12:00:00; 19.579690;
2017.05.30 12:00:00; 20.509380;
2017.05.31 12:00:00; 20.568750;
2017.06.01 12:00:00; 20.548440;
2017.06.02 12:00:00; 20.559380;
2017.06.03 12:00:00; 20.439060;
2017.06.04 12:00:00; 19.829690;
2017.06.05 12:00:00; 19.829690;
2017.06.06 12:00:00; 19.950000;
2017.06.07 12:00:00; 19.898440;
2017.06.08 12:00:00; 20.068750;
2017.06.09 12:00:00; 20.318750;
2017.06.10 12:00:00; 20.609380;
2017.06.11 12:00:00; 20.809380;
2017.06.12 12:00:00; 21.168750;
2017.06.13 12:00:00; 21.409380;
2017.06.14 12:00:00; 21.529690;
2017.06.15 12:00:00; 21.529690;
2017.06.16 12:00:00; 21.409380;
2017.06.17 12:00:00; 21.518750;
2017.06.18 12:00:00; 21.459380;
2017.06.19 12:00:00; 21.539060;
2017.06.20 12:00:00; 22.018750;
2017.06.21 12:00:00; 22.500000;
2017.06.22 12:00:00; 22.739060;
2017.06.23 12:00:00; 22.859380;
2017.06.24 12:00:00; 22.859380;
2017.06.25 12:00:00; 22.859380;
2017.06.26 12:00:00; 22.009380;
2017.06.27 12:00:00; 22.159380;
2017.06.28 12:00:00; 21.889060;
2017.06.29 12:00:00; 21.289060;
2017.06.30 12:00:00; 21.289060;
2017.07.01 12:00:00; 21.289060;
2017.07.02 12:00:00; 20.909380;
2017.07.03 12:00:00; 21.298440;
2017.07.04 12:00:00; 21.889060;
2017.07.05 12:00:00; 22.129690;
2017.07.06 12:00:00; 22.739060;
2017.07.07 12:00:00; 23.118750;
2017.07.08 12:00:00; 22.979690;
2017.07.09 12:00:00; 22.500000;
2017.07.10 12:00:00; 22.089060;
2017.07.11 12:00:00; 21.889060;
2017.07.12 12:00:00; 22.009380;
2017.07.13 12:00:00; 22.350000;
2017.07.14 12:00:00; 22.379690;
2017.07.15 12:00:00; 22.859380;
2017.07.16 12:00:00; 22.529690;
2017.07.17 12:00:00; 22.500000;
2017.07.18 12:00:00; 22.739060;
2017.07.19 12:00:00; 22.979690;
2017.07.20 12:00:00; 22.859380;
2017.07.21 12:00:00; 22.859380;
2017.07.22 12:00:00; 22.739060;
2017.07.23 12:00:00; 22.379690;
2017.07.24 12:00:00; 22.139060;
2017.07.25 12:00:00; 21.059380;
2017.07.26 12:00:00; 20.168750;
2017.07.27 12:00:00; 20.839060;
2017.07.28 12:00:00; 21.289060;
2017.07.29 12:00:00; 21.409380;
2017.07.30 12:00:00; 21.768750;
2017.07.31 12:00:00; 22.018750;
2017.08.01 12:00:00; 22.148440;
2017.08.02 12:00:00; 22.500000;
2017.08.03 12:00:00; 22.850000;
2017.08.04 12:00:00; 22.979690;
2017.08.05 12:00:00; 22.750000;
2017.08.06 12:00:00; 22.609380;
2017.08.07 12:00:00; 22.379690;
2017.08.08 12:00:00; 22.379690;
2017.08.09 12:00:00; 22.018750;
2017.08.10 12:00:00; 21.648440;
2017.08.11 12:00:00; 20.918750;
2017.08.12 12:00:00; 20.709380;
2017.08.13 12:00:00; 21.398440;
2017.08.14 12:00:00; 21.889060;
2017.08.15 12:00:00; 22.379690;
2017.08.16 12:00:00; 22.648440;
2017.08.17 12:00:00; 22.739060;
2017.08.18 12:00:00; 22.979690;
2017.08.19 12:00:00; 22.018750;
2017.08.20 12:00:00; 21.648440;
2017.08.21 12:00:00; 21.809380;
2017.08.22 12:00:00; 22.250000;
2017.08.23 12:00:00; 22.618750;
2017.08.24 12:00:00; 22.859380;
2017.08.25 12:00:00; 22.739060;
2017.08.26 12:00:00; 22.489060;
2017.08.27 12:00:00; 22.859380;
2017.08.28 12:00:00; 23.109380;
2017.08.29 12:00:00; 23.189060;
2017.08.30 12:00:00; 22.989060;
2017.08.31 12:00:00; 22.618750;
2017.09.01 12:00:00; 20.939060;
2017.09.02 12:00:00; 19.950000;
2017.09.03 12:00:00; 20.559380;
2017.09.04 12:00:00; 21.409380;
2017.09.05 12:00:00; 21.889060;
2017.09.06 12:00:00; 22.379690;
2017.09.07 12:00:00; 22.139060;
2017.09.08 12:00:00; 21.898440;
2017.09.09 12:00:00; 21.529690;
2017.09.10 12:00:00; 20.429690;
2017.09.11 12:00:00; 21.039060;
2017.09.12 12:00:00; 20.959380;
2017.09.13 12:00:00; 20.079690;
2017.09.14 12:00:00; 20.750000;
2017.09.15 12:00:00; 20.068750;
2017.09.16 12:00:00; 20.679690;
2017.09.17 12:00:00; 20.798440;
2017.09.18 12:00:00; 19.259380;
2017.09.19 12:00:00; 20.068750;
2017.09.20 12:00:00; 19.950000;
2017.09.21 12:00:00; 20.189060;
2017.09.22 12:00:00; 20.189060;
2017.09.23 12:00:00; 20.489060;
2017.09.24 12:00:00; 20.689060;
2017.09.25 12:00:00; 21.409380;
2017.09.26 12:00:00; 21.159380;
2017.09.27 12:00:00; 21.168750;
2017.09.28 12:00:00; 21.339060;
2017.09.29 12:00:00; 21.168750;
2017.09.30 12:00:00; 21.039060;
2017.10.01 12:00:00; 20.068750;
2017.10.02 12:00:00; 20.689060;
2017.10.03 12:00:00; 20.418750;
2017.10.04 12:00:00; 20.189060;
2017.10.05 12:00:00; 20.429690;
2017.10.06 12:00:00; 19.939060;
2017.10.07 12:00:00; 19.968750;
2017.10.08 12:00:00; 19.959380;
2017.10.09 12:00:00; 20.059380;
2017.10.10 12:00:00; 20.079690;
2017.10.11 12:00:00; 20.200000;
2017.10.12 12:00:00; 20.318750;
2017.10.13 12:00:00; 20.818750;
2017.10.14 12:00:00; 20.559380;
2017.10.15 12:00:00; 20.548440;
2017.10.16 12:00:00; 20.568750;
2017.10.17 12:00:00; 20.429690;
2017.10.18 12:00:00; 20.429690;
2017.10.19 12:00:00; 20.559380;
2017.10.20 12:00:00; 20.309380;
2017.10.21 12:00:00; 19.950000;
2017.10.22 12:00:00; 19.518750;
2017.10.23 12:00:00; 19.350000;
2017.10.24 12:00:00; 19.339060;
2017.10.25 12:00:00; 19.459380;
2017.10.26 12:00:00; 19.700000;
2017.10.27 12:00:00; 19.459380;
2017.10.28 12:00:00; 19.079690;
2017.10.29 12:00:00; 18.729690;
2017.10.30 12:00:00; 18.529690;
2017.10.31 12:00:00; 18.579690;
2017.11.01 12:00:00; 18.600000;
2017.11.02 12:00:00; 18.618750;
2017.11.03 12:00:00; 19.089060;
2017.11.04 12:00:00; 19.289060;
2017.11.05 12:00:00; 19.189060;
2017.11.06 12:00:00; 17.739060;
2017.11.07 12:00:00; 18.109380;
2017.11.08 12:00:00; 18.479690;
2017.11.09 12:00:00; 18.609380;
2017.11.10 12:00:00; 18.718750;
2017.11.11 12:00:00; 18.479690;
2017.11.12 12:00:00; 17.000000;
2017.11.13 12:00:00; 16.668750;
2017.11.14 12:00:00; 17.329690;
2017.11.15 12:00:00; 17.739060;
2017.11.16 12:00:00; 18.359380;
2017.11.17 12:00:00; 17.989060;
2017.11.18 12:00:00; 18.079690;
2017.11.19 12:00:00; 17.489060;
2017.11.20 12:00:00; 17.618750;
2017.11.21 12:00:00; 17.859380;
2017.11.22 12:00:00; 17.759380;
2017.11.23 12:00:00; 17.709380;
2017.11.24 12:00:00; 17.789060;
2017.11.25 12:00:00; 17.239060;
2017.11.26 12:00:00; 15.629690;
2017.11.27 12:00:00; 16.368750;
2017.11.28 12:00:00; 17.000000;
2017.11.29 12:00:00; 17.000000;
2017.11.30 12:00:00; 17.039060;
2017.12.01 12:00:00; 16.929690;
2017.12.02 12:00:00; 16.918750;
2017.12.03 12:00:00; 16.868750;
2017.12.04 12:00:00; 16.918750;
2017.12.05 12:00:00; 16.889060;
2017.12.06 12:00:00; 17.000000;
2017.12.07 12:00:00; 17.118750;
2017.12.08 12:00:00; 15.868750;
2017.12.09 12:00:00; 15.750000;
2017.12.10 12:00:00; 15.648440;
2017.12.11 12:00:00; 14.218750;
2017.12.12 12:00:00; 14.229690;
2017.12.13 12:00:00; 15.118750;
2017.12.14 12:00:00; 15.239060;
2017.12.15 12:00:00; 13.318750;
2017.12.16 12:00:00; 13.609380;
2017.12.17 12:00:00; 13.979690;
2017.12.18 12:00:00; 14.989060;
2017.12.19 12:00:00; 15.350000;
2017.12.20 12:00:00; 15.579690;
2017.12.21 12:00:00; 15.618750;
2017.12.22 12:00:00; 15.118750;
2017.12.23 12:00:00; 15.109380;
2017.12.24 12:00:00; 15.268750;
2017.12.25 12:00:00; 15.339060;
2017.12.26 12:00:00; 15.279690;
2017.12.27 12:00:00; 15.500000;
2017.12.28 12:00:00; 14.989060;
2017.12.29 12:00:00; 15.118750;
2017.12.30 12:00:00; 14.739060;
2017.12.31 12:00:00; 14.359380;
2018.01.01 12:00:00; 14.859380;
2018.01.02 12:00:00; 14.479690;
2018.01.03 12:00:00; 14.509380;
2018.01.04 12:00:00; 13.709380;
2018.01.05 12:00:00; 13.329690;
2018.01.06 12:00:00; 13.850000;
2018.01.07 12:00:00; 14.500000;
2018.01.08 12:00:00; 15.000000;
2018.01.09 12:00:00; 15.368750;
2018.01.10 12:00:00; 15.368750;
2018.01.11 12:00:00; 15.489060;
2018.01.12 12:00:00; 15.618750;
2018.01.13 12:00:00; 15.448440;
2018.01.14 12:00:00; 15.239060;
2018.01.15 12:00:00; 15.239060;
2018.01.16 12:00:00; 14.768750;
2018.01.17 12:00:00; 12.939060;
2018.01.18 12:00:00; 13.589060;
2018.01.19 12:00:00; 13.329690;
2018.01.20 12:00:00; 13.839060;
2018.01.21 12:00:00; 13.309380;
2018.01.22 12:00:00; 12.039060;
2018.01.23 12:00:00; 12.718750;
2018.01.24 12:00:00; 13.868750;
2018.01.25 12:00:00; 14.609380;
2018.01.26 12:00:00; 14.739060;
2018.01.27 12:00:00; 14.859380;
2018.01.28 12:00:00; 14.989060;
2018.01.29 12:00:00; 15.329690;
2018.01.30 12:00:00; 15.514065;
2018.01.31 12:00:00; 15.639060;
2018.02.01 12:00:00; 14.729690;
2018.02.02 12:00:00; 14.989060;
2018.02.03 12:00:00; 15.118750;
2018.02.04 12:00:00; 15.118750;
2018.02.05 12:00:00; 15.368750;
2018.02.06 12:00:00; 15.368750;
2018.02.07 12:00:00; 15.359380;
2018.02.08 12:00:00; 15.239060;
2018.02.09 12:00:00; 15.239060;
2018.02.10 12:00:00; 15.118750;
2018.02.11 12:00:00; 14.879690;
2018.02.12 12:00:00; 14.768750;
2018.02.13 12:00:00; 14.859380;
2018.02.14 12:00:00; 14.989060;
2018.02.15 12:00:00; 14.859380;
2018.02.16 12:00:00; 13.198440;
2018.02.17 12:00:00; 13.448440;
2018.02.18 12:00:00; 12.300000;
2018.02.19 12:00:00; 13.359380;
2018.02.20 12:00:00; 14.029690;
2018.02.21 12:00:00; 14.350000;
2018.02.22 12:00:00; 14.350000;
2018.02.23 12:00:00; 14.468750;
2018.02.24 12:00:00; 14.509380;
2018.02.25 12:00:00; 14.368750;
2018.02.26 12:00:00; 14.350000;
2018.02.27 12:00:00; 14.229690;
2018.02.28 12:00:00; 14.339060;
2018.03.01 12:00:00; 14.359380;
2018.03.02 12:00:00; 14.600000;
2018.03.03 12:00:00; 14.359380;
2018.03.04 12:00:00; 14.229690;
2018.03.05 12:00:00; 14.739060;
2018.03.06 12:00:00; 14.989060;
2018.03.07 12:00:00; 14.939060;
2018.03.08 12:00:00; 14.609380;
2018.03.09 12:00:00; 14.859380;
2018.03.10 12:00:00; 14.989060;
2018.03.11 12:00:00; 15.000000;
2018.03.12 12:00:00; 15.368750;
2018.03.13 12:00:00; 15.118750;
2018.03.14 12:00:00; 15.250000;
2018.03.15 12:00:00; 15.368750;
2018.03.16 12:00:00; 15.368750;
2018.03.17 12:00:00; 15.250000;
2018.03.18 12:00:00; 14.739060;
2018.03.19 12:00:00; 14.859380;
2018.03.20 12:00:00; 14.859380;
2018.03.21 12:00:00; 14.729690;
2018.03.22 12:00:00; 14.359380;
2018.03.23 12:00:00; 14.618750;
2018.03.24 12:00:00; 15.489060;
2018.03.25 12:00:00; 15.259380;
2018.03.26 12:00:00; 15.618750;
2018.03.27 12:00:00; 15.429690;
2018.03.28 12:00:00; 15.100000;
2018.03.29 12:00:00; 14.609380;
2018.03.30 12:00:00; 14.718750;
2018.03.31 12:00:00; 13.968750;
2018.04.01 12:00:00; 14.218750;
2018.04.02 12:00:00; 14.479690;
2018.04.03 12:00:00; 15.118750;
2018.04.04 12:00:00; 15.739060;
2018.04.05 12:00:00; 15.779690;
2018.04.06 12:00:00; 15.868750;
2018.04.07 12:00:00; 16.000000;
2018.04.08 12:00:00; 16.279690;
2018.04.09 12:00:00; 16.500000;
2018.04.10 12:00:00; 16.739060;
2018.04.11 12:00:00; 16.759380;
2018.04.12 12:00:00; 16.868750;
2018.04.13 12:00:00; 17.129690;
2018.04.14 12:00:00; 17.118750;
2018.04.15 12:00:00; 17.000000;
2018.04.16 12:00:00; 17.239060;
2018.04.17 12:00:00; 17.368750;
2018.04.18 12:00:00; 17.618750;
2018.04.19 12:00:00; 17.859380;
2018.04.20 12:00:00; 18.109380;
2018.04.21 12:00:00; 18.239060;
2018.04.22 12:00:00; 18.289060;
2018.04.23 12:00:00; 18.479690;
2018.04.24 12:00:00; 18.468750;
2018.04.25 12:00:00; 18.468750;
2018.04.26 12:00:00; 16.798440;
2018.04.27 12:00:00; 15.500000;
2018.04.28 12:00:00; 16.000000;
2018.04.29 12:00:00; 16.159380;
2018.04.30 12:00:00; 16.250000;
2018.05.01 12:00:00; 15.989060;
2018.05.02 12:00:00; 16.029690;
2018.05.03 12:00:00; 16.548440;
2018.05.04 12:00:00; 15.679690;
2018.05.05 12:00:00; 15.759380;
2018.05.06 12:00:00; 15.879690;
2018.05.07 12:00:00; 16.118750;
2018.05.08 12:00:00; 16.129690;
2018.05.09 12:00:00; 16.239060;
2018.05.10 12:00:00; 15.879690;
2018.05.11 12:00:00; 15.879690;
2018.05.12 12:00:00; 16.368750;
2018.05.13 12:00:00; 16.250000;
2018.05.14 12:00:00; 16.868750;
2018.05.15 12:00:00; 18.229690;
2018.05.16 12:00:00; 17.489060;
2018.05.17 12:00:00; 17.609380;
2018.05.18 12:00:00; 17.989060;
2018.05.19 12:00:00; 18.718750;
2018.05.20 12:00:00; 18.600000;
2018.05.21 12:00:00; 18.718750;
2018.05.22 12:00:00; 19.209380;
2018.05.23 12:00:00; 19.318750;
2018.05.24 12:00:00; 19.459380;
2018.05.25 12:00:00; 19.604690;
2018.05.26 12:00:00; 19.829690;
2018.05.27 12:00:00; 19.829690;
2018.05.28 12:00:00; 20.189060;
2018.05.29 12:00:00; 20.350000;
2018.05.30 12:00:00; 20.439060;
2018.05.31 12:00:00; 20.559380;
2018.06.01 12:00:00; 20.339060;
2018.06.02 12:00:00; 20.439060;
2018.06.03 12:00:00; 20.679690;
2018.06.04 12:00:00; 21.289060;
2018.06.05 12:00:00; 20.798440;
2018.06.06 12:00:00; 20.864065;
2018.06.07 12:00:00; 20.929690;
2018.06.08 12:00:00; 20.929690;
2018.06.09 12:00:00; 20.668750;
2018.06.10 12:00:00; 20.568750;
2018.06.11 12:00:00; 21.048440;
2018.06.12 12:00:00; 20.929690;
2018.06.13 12:00:00; 20.439060;
2018.06.14 12:00:00; 20.318750;
2018.06.15 12:00:00; 20.629690;
2018.06.16 12:00:00; 20.559380;
2018.06.17 12:00:00; 20.679690;
2018.06.18 12:00:00; 21.118750;
2018.06.19 12:00:00; 21.159380;
2018.06.20 12:00:00; 21.289060;
2018.06.21 12:00:00; 21.659380;
2018.06.22 12:00:00; 21.409380;
2018.06.23 12:00:00; 20.929690;
2018.06.24 12:00:00; 20.818750;
2018.06.25 12:00:00; 21.039060;
2018.06.26 12:00:00; 21.068750;
2018.06.27 12:00:00; 21.298440;
2018.06.28 12:00:00; 21.500000;
2018.06.29 12:00:00; 21.529690;
2018.06.30 12:00:00; 21.648440;
2018.07.01 12:00:00; 21.839060;
2018.07.02 12:00:00; 22.129690;
2018.07.03 12:00:00; 22.009380;
2018.07.04 12:00:00; 21.889060;
2018.07.05 12:00:00; 22.000000;
2018.07.06 12:00:00; 21.648440;
2018.07.07 12:00:00; 21.548440;
2018.07.08 12:00:00; 21.768750;
2018.07.09 12:00:00; 22.139060;
2018.07.10 12:00:00; 22.139060;
2018.07.11 12:00:00; 21.918750;
2018.07.12 12:00:00; 21.929690;
2018.07.13 12:00:00; 22.209380;
2018.07.14 12:00:00; 22.629690;
2018.07.15 12:00:00; 22.429690;
2018.07.16 12:00:00; 22.479690;
2018.07.17 12:00:00; 22.609380;
2018.07.18 12:00:00; 22.518750;
2018.07.19 12:00:00; 22.618750;
2018.07.20 12:00:00; 22.618750;
2018.07.21 12:00:00; 23.700000;
2018.07.22 12:00:00; 22.500000;
2018.07.23 12:00:00; 22.489060;
2018.07.24 12:00:00; 22.609380;
2018.07.25 12:00:00; 22.759380;
2018.07.26 12:00:00; 22.989060;
2018.07.27 12:00:00; 23.168750;
2018.07.28 12:00:00; 22.859380;
2018.07.29 12:00:00; 22.618750;
2018.07.30 12:00:00; 22.879690;
2018.07.31 12:00:00; 23.109380;
2018.08.01 12:00:00; 23.339060;
2018.08.02 12:00:00; 23.579690;
2018.08.03 12:00:00; 23.459380;
2018.08.04 12:00:00; 23.489060;
2018.08.05 12:00:00; 23.459380;
2018.08.06 12:00:00; 23.709380;
2018.08.07 12:00:00; 23.579690;
2018.08.08 12:00:00; 23.589060;
2018.08.09 12:00:00; 23.700000;
2018.08.10 12:00:00; 23.148440;
2018.08.11 12:00:00; 22.968750;
2018.08.12 12:00:00; 22.859380;
2018.08.13 12:00:00; 23.100000;
2018.08.14 12:00:00; 22.629690;
2018.08.15 12:00:00; 22.739060;
2018.08.16 12:00:00; 23.100000;
2018.08.17 12:00:00; 23.339060;
2018.08.21 12:00:00; 23.229690;
2018.08.22 12:00:00; 23.459380;
2018.08.23 12:00:00; 23.829690;
2018.08.24 12:00:00; 23.459380;
2018.08.25 12:00:00; 22.859380;
2018.08.26 12:00:00; 22.379690;
2018.08.27 12:00:00; 22.500000;
2018.08.28 12:00:00; 22.859380;
2018.08.29 12:00:00; 23.089060;
2018.08.30 12:00:00; 22.979690;
2018.08.31 12:00:00; 22.500000;
2018.09.01 12:00:00; 21.418750;
2018.09.02 12:00:00; 21.648440;
2018.09.03 12:00:00; 22.018750;
2018.09.04 12:00:00; 22.139060;
2018.09.05 12:00:00; 22.379690;
2018.09.06 12:00:00; 22.609380;
2018.09.07 12:00:00; 22.729690;
2018.09.08 12:00:00; 22.479690;
2018.09.09 12:00:00; 22.350000;
2018.09.10 12:00:00; 22.618750;
2018.09.11 12:00:00; 22.859380;
2018.09.12 12:00:00; 22.859380;
2018.09.13 12:00:00; 22.979690;
2018.09.14 12:00:00; 22.259380;
2018.09.15 12:00:00; 22.329690;
2018.09.16 12:00:00; 22.259380;
2018.09.17 12:00:00; 22.489060;
2018.09.18 12:00:00; 22.609380;
2018.09.19 12:00:00; 22.500000;
2018.09.20 12:00:00; 22.379690;
2018.09.21 12:00:00; 21.648440;
2018.09.22 12:00:00; 22.259380;
2018.09.23 12:00:00; 22.618750;
2018.09.24 12:00:00; 22.368750;
2018.09.25 12:00:00; 21.048440;
2018.09.26 12:00:00; 21.039060;
2018.09.27 12:00:00; 21.168750;
2018.09.28 12:00:00; 21.089060;
2018.09.29 12:00:00; 21.039060;
2018.09.30 12:00:00; 20.918750;
2018.10.01 12:00:00; 19.934375;
2018.10.02 12:00:00; 20.318750;
2018.10.03 12:00:00; 20.679690;
2018.10.04 12:00:00; 20.809380;
2018.10.05 12:00:00; 20.679690;
2018.10.06 12:00:00; 20.718750;
2018.10.07 12:00:00; 21.168750;
2018.10.08 12:00:00; 20.918750;
2018.10.09 12:00:00; 20.679690;
2018.10.10 12:00:00; 21.279690;
2018.10.11 12:00:00; 20.798440;
2018.10.12 12:00:00; 20.450000;
2018.10.13 12:00:00; 20.798440;
2018.10.14 12:00:00; 20.559380;
2018.10.15 12:00:00; 20.548440;
2018.10.16 12:00:00; 20.329690;
2018.10.17 12:00:00; 20.268750;
2018.10.18 12:00:00; 20.189060;
2018.10.19 12:00:00; 20.439060;
2018.10.20 12:00:00; 20.309380;
2018.10.21 12:00:00; 20.068750;
2018.10.22 12:00:00; 20.200000;
